Practical Data Management
…
Is this tidy data? Why or why not?

Preparing our data

Joining tables

To do our analysis we need to combined the information from the two tables. To do this we’ll use a join operation. Here we use a left join which will add the columns from the sequences table to the db table only where there is a match base on a ‘key’ column. We’ll let the left_join() function decide which columns to use as keys, based on column names

all = left_join(db, seqs)
## Joining, by = c("PATID", "ENUM", "DRAWN_DATE")
all
## # A tibble: 23 × 10
##    PATID First_pos_test  ENUM DRAWN_DATE  NRTI NNRTI    PI    LOCATION
##    <int>         <date> <chr>     <date> <int> <int> <int>       <chr>
## 1      4     1995-07-10  104A 2001-10-23     0     0     0  Calgary_AB
## 2      4     1995-07-10  083A 2008-10-15     0     0     0  Calgary_AB
## 3      4     1995-07-10  274A 2011-09-22     0     0     0  Calgary_AB
## 4      5     1999-02-01  160A 2003-09-04     1     1     0  Calgary_AB
## 5      5     1999-02-01  266A 2005-04-21     1     1     0  Calgary_AB
## 6      5     1999-02-01  314A 2008-08-26     0     1     0  Calgary_AB
## 7      5     1999-02-01  090B 2009-09-02     1     1     0 Edmonton_AB
## 8      5     1999-02-01  493A 2010-10-20     0     0     0  Calgary_AB
## 9      5     1999-02-01  897A 2015-11-17     0     1     0  Calgary_AB
## 10     1     1986-08-06  241A 2006-02-06     0     0     0  Calgary_AB
## # ... with 13 more rows, and 2 more variables: TESTCODE <chr>,
## #   STRING <chr>
…
