Practical Data Mangement Part 2
…
Hmm, how does that look if we divide it up by clinical status?

pa_tidy %>% 
    group_by(Phenotype, Clinical_Status) %>% 
    summarise(mean = mean(Measurement, na.rm = TRUE))
## Source: local data frame [22 x 3]
## Groups: Phenotype [?]
## 
##    Phenotype   Clinical_Status       mean
##        <chr>             <chr>      <dbl>
## 1        CAZ Clinically Stable 15.7500000
## 2        CAZ      Exacerbation 17.2142857
## 3        CIP Clinically Stable 11.2500000
## 4        CIP      Exacerbation 15.6000000
## 5         CT Clinically Stable 16.2500000
## 6         CT      Exacerbation 15.8000000
## 7         LB Clinically Stable  0.3397040
## 8         LB      Exacerbation  0.3751168
## 9      M9glu Clinically Stable  0.1180272
## 10     M9glu      Exacerbation  0.1637252
## # ... with 12 more rows
…
pa_tidy %>% filter(Date_of_Isolation < "2008-01-01")
## # A tibble: 88 × 6
##    Strain_ID Event_num Clinical_Status Date_of_Isolation Phenotype
##        <int>     <chr>           <chr>            <date>     <chr>
## 1         48      EXA1    Exacerbation        2007-11-14       CAZ
## 2         17      EXA1    Exacerbation        2007-11-08       CAZ
## 3         50      EXA1    Exacerbation        2007-11-16       CAZ
## 4         43      EXA1    Exacerbation        2007-11-14       CAZ
## 5         55      EXA1    Exacerbation        2007-11-18       CAZ
## 6         52      EXA1    Exacerbation        2007-11-16       CAZ
## 7         58      EXA1    Exacerbation        2007-11-18       CAZ
## 8         40      EXA1    Exacerbation        2007-11-14       CAZ
## 9         48      EXA1    Exacerbation        2007-11-14       CIP
## 10        17      EXA1    Exacerbation        2007-11-08       CIP
## # ... with 78 more rows, and 1 more variables: Measurement <dbl>
…
pa_tidy %>% group_by(Phenotype, Date_of_Isolation) %>% tally()
## Source: local data frame [143 x 3]
## Groups: Phenotype [?]
## 
##    Phenotype Date_of_Isolation     n
##        <chr>            <date> <int>
## 1        CAZ        2007-11-08     1
## 2        CAZ        2007-11-14     3
## 3        CAZ        2007-11-16     2
## 4        CAZ        2007-11-18     2
## 5        CAZ        2008-02-04     1
## 6        CAZ        2008-04-16     1
## 7        CAZ        2008-06-16     3
## 8        CAZ        2008-07-17     1
## 9        CAZ        2008-07-19     1
## 10       CAZ        2008-07-21     2
## # ... with 133 more rows
…
Mean center (scale) the phenotype measurments.

pa_tidy %>% 
    group_by(Phenotype) %>% 
    mutate(centered = scale(Measurement))
## Source: local data frame [220 x 7]
## Groups: Phenotype [11]
## 
##    Strain_ID Event_num   Clinical_Status Date_of_Isolation Phenotype
##        <int>     <chr>             <chr>            <date>     <chr>
## 1         66       CS1 Clinically Stable        2008-02-04       CAZ
## 2        132      EXA3      Exacerbation        2008-09-15       CAZ
## 3         48      EXA1      Exacerbation        2007-11-14       CAZ
## 4         69       CS1 Clinically Stable        2008-04-16       CAZ
## 5        108      EXA2      Exacerbation        2008-07-23       CAZ
## 6         88       CS1 Clinically Stable        2008-06-16       CAZ
## 7         17      EXA1      Exacerbation        2007-11-08       CAZ
## 8         87       CS1 Clinically Stable        2008-06-16       CAZ
## 9         94      EXA2      Exacerbation        2008-07-17       CAZ
## 10        50      EXA1      Exacerbation        2007-11-16       CAZ
## # ... with 210 more rows, and 2 more variables: Measurement <dbl>,
## #   centered <dbl>
…
